%YAML 1.1
%TAG !u! tag:unity3d.com,2011:
--- !u!74 &7400000
AnimationClip:
  m_ObjectHideFlags: 0
  m_PrefabParentObject: {fileID: 0}
  m_PrefabInternal: {fileID: 0}
  m_Name: Medic_Talk
  serializedVersion: 4
  m_AnimationType: 2
  m_Compressed: 0
  m_UseHighQualityCurve: 1
  m_RotationCurves: []
  m_CompressedRotationCurves: []
  m_PositionCurves: []
  m_ScaleCurves: []
  m_FloatCurves: []
  m_PPtrCurves:
  - curve:
    - time: 0
      value: {fileID: 21300000, guid: 11ee5982a6e7adf498d8e64c9418d4b6, type: 3}
    - time: .0500000007
      value: {fileID: 21300000, guid: 3675cdf9b56ce5244b08c5c9f81c3f16, type: 3}
    - time: .100000001
      value: {fileID: 21300000, guid: 4b4dfdcafe89ce742937757d0708cb22, type: 3}
    - time: .150000006
      value: {fileID: 21300000, guid: 549a27837eb62674995c21e1298b25c7, type: 3}
    - time: .200000003
      value: {fileID: 21300000, guid: 994f7df2563d3a348be3e1c06aea6399, type: 3}
    - time: .25
      value: {fileID: 21300000, guid: be445bea19ca9a74d86eebd34d9b5ad4, type: 3}
    - time: .300000012
      value: {fileID: 21300000, guid: 213270f5718a92b4795a49fa8682499d, type: 3}
    - time: .349999994
      value: {fileID: 21300000, guid: 84ee7b36149e8e24e9d1dcc5a1052540, type: 3}
    - time: .400000006
      value: {fileID: 21300000, guid: 1fca92f9355ffc44c964140aae74f9a7, type: 3}
    - time: .449999988
      value: {fileID: 21300000, guid: 76a5b7811aeb2bf43b234ec014d77fc7, type: 3}
    - time: .5
      value: {fileID: 21300000, guid: a310f0f831843d44297127c985a025c6, type: 3}
    - time: .550000012
      value: {fileID: 21300000, guid: b89d6c83504019c40aa9fec05e0b5c9f, type: 3}
    - time: .600000024
      value: {fileID: 21300000, guid: 5d671c217540b454eab3da27d442525b, type: 3}
    - time: .649999976
      value: {fileID: 21300000, guid: 2ea79f471b78e6d4ea702905e91d1a29, type: 3}
    - time: .699999988
      value: {fileID: 21300000, guid: 8b26b47d5c1768a43b238a1125a40d2f, type: 3}
    - time: .75
      value: {fileID: 21300000, guid: a94a4a4810f56334c8c797e29c76a0c7, type: 3}
    - time: .800000012
      value: {fileID: 21300000, guid: 2f3889a4fd00abd4b9c781635992334a, type: 3}
    - time: .850000024
      value: {fileID: 21300000, guid: e3fd6a360e74bc443a89642145544dbe, type: 3}
    - time: .899999976
      value: {fileID: 21300000, guid: 1c8b45bcc14a2bb41ab2c760cb24047a, type: 3}
    - time: .949999988
      value: {fileID: 21300000, guid: f016b6a4b5e2fdb4d98d09dbcfd000f8, type: 3}
    - time: 1
      value: {fileID: 21300000, guid: 9f74a7701d7ed554ea14e6da03cbbebd, type: 3}
    - time: 1.04999995
      value: {fileID: 21300000, guid: 7460b9b0c9a01234f97ca8527ce06569, type: 3}
    - time: 1.10000002
      value: {fileID: 21300000, guid: 60c16a5c90326f84490bdad947e59f5d, type: 3}
    - time: 1.14999998
      value: {fileID: 21300000, guid: 9a15492e8eaa46b46a8b88e90cd957d6, type: 3}
    - time: 1.20000005
      value: {fileID: 21300000, guid: 5c352e872b9fa3a449c3bbdaff75f72c, type: 3}
    - time: 1.25
      value: {fileID: 21300000, guid: 5732ee9316553b44eb49fe8928915a95, type: 3}
    - time: 1.29999995
      value: {fileID: 21300000, guid: cb3580a22a634ed4091b3bb85c475791, type: 3}
    - time: 1.35000002
      value: {fileID: 21300000, guid: 1303cae2e7f145447ad0d496d8eb038a, type: 3}
    - time: 1.39999998
      value: {fileID: 21300000, guid: f1467e237e8be1948a628fd75f336cd0, type: 3}
    - time: 1.45000005
      value: {fileID: 21300000, guid: d4491a7af4d671f45be52fcdc9d375e7, type: 3}
    - time: 1.5
      value: {fileID: 21300000, guid: 0095e9f875b90a64c82283ec9f9e2224, type: 3}
    - time: 1.54999995
      value: {fileID: 21300000, guid: 184522f37eb4ae24686304181f0330c4, type: 3}
    - time: 1.60000002
      value: {fileID: 21300000, guid: ebd644fd81c99134e8eebfb8fd3f68b6, type: 3}
    - time: 1.64999998
      value: {fileID: 21300000, guid: 5e93e838795863448acd3641a5944757, type: 3}
    - time: 1.70000005
      value: {fileID: 21300000, guid: 58129dcdfb17bec4b9ea6d3aeaedfba1, type: 3}
    - time: 1.75
      value: {fileID: 21300000, guid: d1111aadb40d5a748aa75581b82d35fb, type: 3}
    - time: 1.79999995
      value: {fileID: 21300000, guid: 5b0e441688fb0454c9fcc5c3e6039920, type: 3}
    - time: 1.85000002
      value: {fileID: 21300000, guid: 4476bfe79f545d04995af6b96b721148, type: 3}
    - time: 1.89999998
      value: {fileID: 21300000, guid: 132c54b7b7cf0ce4a8457de4daf771ad, type: 3}
    - time: 1.95000005
      value: {fileID: 21300000, guid: 6c9cbec6cfaffa742ad13a150381163f, type: 3}
    - time: 2
      value: {fileID: 21300000, guid: 93f8bd12fa758f44e84dd15c9ebd1494, type: 3}
    - time: 2.04999995
      value: {fileID: 21300000, guid: 8d0707965f570a240bbf2c20b70b0281, type: 3}
    - time: 2.0999999
      value: {fileID: 21300000, guid: a43eed348397f8545a0c65ed6e4f8592, type: 3}
    attribute: m_Sprite
    path: Image
    classID: 114
    script: {fileID: -765806418, guid: f5f67c52d1564df4a8936ccd202a3bd8, type: 3}
  m_SampleRate: 20
  m_WrapMode: 0
  m_Bounds:
    m_Center: {x: 0, y: 0, z: 0}
    m_Extent: {x: 0, y: 0, z: 0}
  m_ClipBindingConstant:
    genericBindings:
    - path: 83635035
      attribute: 2015549526
      script: {fileID: -765806418, guid: f5f67c52d1564df4a8936ccd202a3bd8, type: 3}
      classID: 114
      customType: 0
      isPPtrCurve: 1
    pptrCurveMapping:
    - {fileID: 21300000, guid: 11ee5982a6e7adf498d8e64c9418d4b6, type: 3}
    - {fileID: 21300000, guid: 3675cdf9b56ce5244b08c5c9f81c3f16, type: 3}
    - {fileID: 21300000, guid: 4b4dfdcafe89ce742937757d0708cb22, type: 3}
    - {fileID: 21300000, guid: 549a27837eb62674995c21e1298b25c7, type: 3}
    - {fileID: 21300000, guid: 994f7df2563d3a348be3e1c06aea6399, type: 3}
    - {fileID: 21300000, guid: be445bea19ca9a74d86eebd34d9b5ad4, type: 3}
    - {fileID: 21300000, guid: 213270f5718a92b4795a49fa8682499d, type: 3}
    - {fileID: 21300000, guid: 84ee7b36149e8e24e9d1dcc5a1052540, type: 3}
    - {fileID: 21300000, guid: 1fca92f9355ffc44c964140aae74f9a7, type: 3}
    - {fileID: 21300000, guid: 76a5b7811aeb2bf43b234ec014d77fc7, type: 3}
    - {fileID: 21300000, guid: a310f0f831843d44297127c985a025c6, type: 3}
    - {fileID: 21300000, guid: b89d6c83504019c40aa9fec05e0b5c9f, type: 3}
    - {fileID: 21300000, guid: 5d671c217540b454eab3da27d442525b, type: 3}
    - {fileID: 21300000, guid: 2ea79f471b78e6d4ea702905e91d1a29, type: 3}
    - {fileID: 21300000, guid: 8b26b47d5c1768a43b238a1125a40d2f, type: 3}
    - {fileID: 21300000, guid: a94a4a4810f56334c8c797e29c76a0c7, type: 3}
    - {fileID: 21300000, guid: 2f3889a4fd00abd4b9c781635992334a, type: 3}
    - {fileID: 21300000, guid: e3fd6a360e74bc443a89642145544dbe, type: 3}
    - {fileID: 21300000, guid: 1c8b45bcc14a2bb41ab2c760cb24047a, type: 3}
    - {fileID: 21300000, guid: f016b6a4b5e2fdb4d98d09dbcfd000f8, type: 3}
    - {fileID: 21300000, guid: 9f74a7701d7ed554ea14e6da03cbbebd, type: 3}
    - {fileID: 21300000, guid: 7460b9b0c9a01234f97ca8527ce06569, type: 3}
    - {fileID: 21300000, guid: 60c16a5c90326f84490bdad947e59f5d, type: 3}
    - {fileID: 21300000, guid: 9a15492e8eaa46b46a8b88e90cd957d6, type: 3}
    - {fileID: 21300000, guid: 5c352e872b9fa3a449c3bbdaff75f72c, type: 3}
    - {fileID: 21300000, guid: 5732ee9316553b44eb49fe8928915a95, type: 3}
    - {fileID: 21300000, guid: cb3580a22a634ed4091b3bb85c475791, type: 3}
    - {fileID: 21300000, guid: 1303cae2e7f145447ad0d496d8eb038a, type: 3}
    - {fileID: 21300000, guid: f1467e237e8be1948a628fd75f336cd0, type: 3}
    - {fileID: 21300000, guid: d4491a7af4d671f45be52fcdc9d375e7, type: 3}
    - {fileID: 21300000, guid: 0095e9f875b90a64c82283ec9f9e2224, type: 3}
    - {fileID: 21300000, guid: 184522f37eb4ae24686304181f0330c4, type: 3}
    - {fileID: 21300000, guid: ebd644fd81c99134e8eebfb8fd3f68b6, type: 3}
    - {fileID: 21300000, guid: 5e93e838795863448acd3641a5944757, type: 3}
    - {fileID: 21300000, guid: 58129dcdfb17bec4b9ea6d3aeaedfba1, type: 3}
    - {fileID: 21300000, guid: d1111aadb40d5a748aa75581b82d35fb, type: 3}
    - {fileID: 21300000, guid: 5b0e441688fb0454c9fcc5c3e6039920, type: 3}
    - {fileID: 21300000, guid: 4476bfe79f545d04995af6b96b721148, type: 3}
    - {fileID: 21300000, guid: 132c54b7b7cf0ce4a8457de4daf771ad, type: 3}
    - {fileID: 21300000, guid: 6c9cbec6cfaffa742ad13a150381163f, type: 3}
    - {fileID: 21300000, guid: 93f8bd12fa758f44e84dd15c9ebd1494, type: 3}
    - {fileID: 21300000, guid: 8d0707965f570a240bbf2c20b70b0281, type: 3}
    - {fileID: 21300000, guid: a43eed348397f8545a0c65ed6e4f8592, type: 3}
  m_AnimationClipSettings:
    serializedVersion: 2
    m_StartTime: 0
    m_StopTime: 2.14999986
    m_OrientationOffsetY: 0
    m_Level: 0
    m_CycleOffset: 0
    m_LoopTime: 1
    m_LoopBlend: 0
    m_LoopBlendOrientation: 0
    m_LoopBlendPositionY: 0
    m_LoopBlendPositionXZ: 0
    m_KeepOriginalOrientation: 0
    m_KeepOriginalPositionY: 1
    m_KeepOriginalPositionXZ: 0
    m_HeightFromFeet: 0
    m_Mirror: 0
  m_EditorCurves: []
  m_EulerEditorCurves: []
  m_Events: []
